…
## # A tibble: 6 x 11
##    v102  v185  v189  v190  v191  v192  v193  v225  v226 v243_edulvlb country
##   <dbl> <dbl> <dbl> <dbl> <dbl> <dbl> <dbl> <dbl> <dbl>        <dbl>   <dbl>
## 1     3    10     2     1     3     1     2     1  1995          423     826
## 2    10     1     1     1     2     1     2     1  1977          113     826
## 3     5    10     2     1     3     2     3     2  1998          321     826
## 4     6    10     1     1     1     1     1     1  1954          720     826
## 5    10     6     1     1     1     1     1     1  1945          323     826
## 6     1     6     1     1     1     1     2     1  1952          113     826

EVS includes all European countries, for our excercise we want to analyse data examining attitudes towards immigration in GB. To exclude all other countries from our dataset we need a) to know the value of the variable that corresponds to Great Britain (country==826) b) to delete all other values of the country variable from our dataset. To do so we will use the filter () function.

sub.sample %>% filter(country == 826) 

## # A tibble: 1,788 x 11
##     v102  v185  v189  v190  v191  v192  v193  v225  v226 v243_edulvlb country
##    <dbl> <dbl> <dbl> <dbl> <dbl> <dbl> <dbl> <dbl> <dbl>        <dbl>   <dbl>
##  1     3    10     2     1     3     1     2     1  1995          423     826
##  2    10     1     1     1     2     1     2     1  1977          113     826
##  3     5    10     2     1     3     2     3     2  1998          321     826
##  4     6    10     1     1     1     1     1     1  1954          720     826
##  5    10     6     1     1     1     1     1     1  1945          323     826
##  6     1     6     1     1     1     1     2     1  1952          113     826
##  7     5     7     2     1     3     2     2     2  1975          620     826
##  8     6     3     2     1     3     1     2     2  1965          520     826
##  9     1     8     3     3     3     1     2     2  1990          620     826
## 10     5     3     3     2     1     2     1     2  1976          321     826
## # … with 1,778 more rows
…
